<svg width="170" height="174" viewBox="0 0 170 174" fill="none" xmlns="http://www.w3.org/2000/svg">
<g filter="url(#filter0_d)">
<rect y="88.8528" width="120" height="120" transform="rotate(-45 0 88.8528)" fill="white"/>
</g>
<g clip-path="url(#clip0)">
<path d="M98 97H71C69.3455 97 68 95.6545 68 94V91C68 89.3455 69.3455 88 71 88H98C99.6545 88 101 89.3455 101 91V94C101 95.6545 99.6545 97 98 97Z" fill="#F70000"/>
<path d="M98.2293 116.062L86.5644 75.964C87.9182 75.3622 88.8651 74.0055 88.8651 72.431C88.8651 70.2998 87.1312 68.5659 85 68.5659C82.8689 68.5659 81.135 70.2998 81.135 72.431C81.135 74.0055 82.0819 75.3622 83.4356 75.964L71.7706 116.062C71.6633 116.431 71.8688 116.831 72.2312 116.959C72.6236 117.098 73.0639 116.871 73.18 116.472L75.0907 109.905C75.1073 109.898 75.1241 109.892 75.1404 109.884L85 105.169L94.8597 109.884C94.8761 109.892 94.8929 109.898 94.9095 109.905L96.8201 116.472C96.9363 116.872 97.3762 117.097 97.7688 116.959C98.1315 116.832 98.3365 116.431 98.2293 116.062ZM90.2219 93.7912L86.641 92.0007L89.3125 90.665L90.2219 93.7912ZM87.4478 84.2552L86.6009 83.8184L87.2268 83.4956L87.4478 84.2552ZM82.6028 72.431C82.6028 71.1091 83.6782 70.0337 85 70.0337C86.322 70.0337 87.3973 71.1092 87.3973 72.431C87.3973 73.7527 86.322 74.8282 85 74.8282C83.6781 74.8282 82.6028 73.7528 82.6028 72.431ZM84.8688 76.2927C84.9123 76.2941 84.956 76.296 85 76.296C85.0441 76.296 85.0877 76.2941 85.1315 76.2927L86.8092 82.0596L85.0002 82.9928L83.1912 82.0596L84.8688 76.2927ZM82.7733 83.4957L83.3991 83.8185L82.5523 84.2553L82.7733 83.4957ZM81.9888 86.1923C82.0122 86.1831 82.0357 86.1733 82.0585 86.1614L85 84.6442L87.9414 86.1614C87.9643 86.1732 87.9878 86.183 88.0112 86.1923L88.8956 89.2324L85 91.1801L81.1043 89.2324L81.9888 86.1923ZM80.6876 90.665L83.3591 92.0007L79.7783 93.7912L80.6876 90.665ZM75.6393 108.019L77.5104 101.587L83.2991 104.355L75.6393 108.019ZM77.9259 100.158L79.2196 95.7114L85 92.8212L90.7806 95.7114L92.0742 100.158L85 103.542L77.9259 100.158ZM86.701 104.355L92.4898 101.587L94.3608 108.019L86.701 104.355Z" fill="#222222"/>
</g>
<defs>
<filter id="filter0_d" x="0" y="0" width="169.706" height="173.706" filterUnits="userSpaceOnUse" color-interpolation-filters="sRGB">
<feFlood flood-opacity="0" result="BackgroundImageFix"/>
<feColorMatrix in="SourceAlpha" type="matrix" values="0 0 0 0 0 0 0 0 0 0 0 0 0 0 0 0 0 0 127 0"/>
<feOffset dy="-4"/>
<feColorMatrix type="matrix" values="0 0 0 0 0.133333 0 0 0 0 0.133333 0 0 0 0 0.133333 0 0 0 1 0"/>
<feBlend mode="normal" in2="BackgroundImageFix" result="effect1_dropShadow"/>
<feBlend mode="normal" in="SourceGraphic" in2="effect1_dropShadow" result="shape"/>
</filter>
<clipPath id="clip0">
<rect x="60" y="67" width="50" height="50" fill="white"/>
</clipPath>
</defs>
</svg>
