<svg width="170" height="174" viewBox="0 0 170 174" fill="none" xmlns="http://www.w3.org/2000/svg">
<g filter="url(#filter0_d)">
<rect y="88.8528" width="120" height="120" transform="rotate(-45 0 88.8528)" fill="white"/>
</g>
<g clip-path="url(#clip0)">
<path d="M88.1668 64C87.7622 64 87.4344 64.3278 87.4344 64.7324V69.1946H78.9906C78.1971 69.1946 77.5516 69.8402 77.5516 70.6338V88.1031L66.5219 95.0874C65.7287 95.5896 65.2552 96.4498 65.2552 97.3886V112.536C64.8555 112.541 64.5332 112.867 64.5332 113.268C64.5332 113.672 64.861 114 65.2656 114H104.735C105.139 114 105.467 113.672 105.467 113.268C105.467 112.866 105.144 112.54 104.743 112.536V100.285C104.743 99.88 104.415 99.5521 104.011 99.5521C103.606 99.5521 103.278 99.88 103.278 100.285V112.535H92.1936V84.7258H103.278V96.8666C103.278 97.2712 103.606 97.599 104.011 97.599C104.415 97.599 104.743 97.2712 104.743 96.8666V84.7002C104.743 83.9066 104.098 83.261 103.304 83.261H98.7822V70.6339C98.7822 69.8403 98.1366 69.1947 97.3431 69.1947H94.8792C94.4746 69.1947 94.1468 69.5226 94.1468 69.9271C94.1468 70.3317 94.4746 70.6596 94.8792 70.6596H97.3175V83.261H95.4881V73.4825C95.4881 73.0779 95.1603 72.7501 94.7557 72.7501C94.3511 72.7501 94.0232 73.0779 94.0232 73.4825V83.261H92.1938V73.4825C92.1938 73.0779 91.8659 72.7501 91.4613 72.7501C91.0567 72.7501 90.7289 73.0779 90.7289 73.4825V112.535H79.0164C79.0164 112.135 79.0164 71.7186 79.0164 70.6595H91.4611C91.8657 70.6595 92.1936 70.3316 92.1936 69.9271C92.1936 69.5225 91.8657 69.1946 91.4611 69.1946H88.8993V64.7324C88.8992 64.3278 88.5714 64 88.1668 64V64ZM77.5516 112.535H66.72V97.3886C66.72 96.9547 66.9389 96.557 67.3055 96.325L77.5516 89.8369V112.535Z" fill="#222222"/>
<path d="M80.8457 73.4825V110.12C80.8457 110.525 81.1735 110.852 81.5781 110.852C81.9827 110.852 82.3105 110.525 82.3105 110.12V73.4825C82.3105 73.0779 81.9827 72.7501 81.5781 72.7501C81.1735 72.7501 80.8457 73.0779 80.8457 73.4825Z" fill="#F70000"/>
<path d="M87.4346 73.4825V110.12C87.4346 110.525 87.7624 110.852 88.167 110.852C88.5716 110.852 88.8994 110.525 88.8994 110.12V73.4825C88.8994 73.0779 88.5716 72.7501 88.167 72.7501C87.7624 72.7501 87.4346 73.0779 87.4346 73.4825Z" fill="#F70000"/>
<path d="M84.1396 73.4825V110.12C84.1396 110.525 84.4675 110.852 84.8721 110.852C85.2766 110.852 85.6045 110.525 85.6045 110.12V73.4825C85.6045 73.0779 85.2766 72.7501 84.8721 72.7501C84.4675 72.7501 84.1396 73.0779 84.1396 73.4825Z" fill="#F70000"/>
<path d="M72.1357 102.095C72.5403 102.095 72.8682 101.767 72.8682 101.363V100.534C72.8682 100.13 72.5403 99.8018 72.1357 99.8018C71.7312 99.8018 71.4033 100.13 71.4033 100.534V101.363C71.4033 101.767 71.7312 102.095 72.1357 102.095Z" fill="#222222"/>
<path d="M69.3613 102.095C69.7659 102.095 70.0938 101.767 70.0938 101.363V100.534C70.0938 100.13 69.7659 99.8018 69.3613 99.8018C68.9567 99.8018 68.6289 100.13 68.6289 100.534V101.363C68.6289 101.767 68.9567 102.095 69.3613 102.095Z" fill="#222222"/>
<path d="M74.9092 102.095C75.3138 102.095 75.6416 101.767 75.6416 101.363V100.534C75.6416 100.13 75.3138 99.8018 74.9092 99.8018C74.5046 99.8018 74.1768 100.13 74.1768 100.534V101.363C74.1768 101.767 74.5047 102.095 74.9092 102.095Z" fill="#222222"/>
<path d="M72.1357 106.474C72.5403 106.474 72.8682 106.146 72.8682 105.741V104.913C72.8682 104.508 72.5403 104.18 72.1357 104.18C71.7312 104.18 71.4033 104.508 71.4033 104.913V105.741C71.4033 106.146 71.7312 106.474 72.1357 106.474Z" fill="#222222"/>
<path d="M69.3613 106.474C69.7659 106.474 70.0938 106.146 70.0938 105.741V104.913C70.0938 104.508 69.7659 104.18 69.3613 104.18C68.9567 104.18 68.6289 104.508 68.6289 104.913V105.741C68.6289 106.146 68.9567 106.474 69.3613 106.474Z" fill="#222222"/>
<path d="M74.9092 106.474C75.3138 106.474 75.6416 106.146 75.6416 105.741V104.913C75.6416 104.508 75.3138 104.18 74.9092 104.18C74.5046 104.18 74.1768 104.508 74.1768 104.913V105.741C74.1768 106.146 74.5047 106.474 74.9092 106.474Z" fill="#222222"/>
<path d="M72.1357 97.7161C72.5403 97.7161 72.8682 97.3883 72.8682 96.9837V96.1554C72.8682 95.7508 72.5403 95.423 72.1357 95.423C71.7312 95.423 71.4033 95.7508 71.4033 96.1554V96.9837C71.4033 97.3883 71.7312 97.7161 72.1357 97.7161Z" fill="#222222"/>
<path d="M74.9092 97.7161C75.3138 97.7161 75.6416 97.3883 75.6416 96.9837V96.1554C75.6416 95.7508 75.3138 95.423 74.9092 95.423C74.5046 95.423 74.1768 95.7508 74.1768 96.1554V96.9837C74.1768 97.3883 74.5047 97.7161 74.9092 97.7161Z" fill="#222222"/>
<path d="M72.1357 110.852C72.5403 110.852 72.8682 110.525 72.8682 110.12V109.292C72.8682 108.887 72.5403 108.559 72.1357 108.559C71.7312 108.559 71.4033 108.887 71.4033 109.292V110.12C71.4033 110.525 71.7312 110.852 72.1357 110.852Z" fill="#222222"/>
<path d="M69.3613 110.852C69.7659 110.852 70.0938 110.525 70.0938 110.12V109.292C70.0938 108.887 69.7659 108.559 69.3613 108.559C68.9567 108.559 68.6289 108.887 68.6289 109.292V110.12C68.6289 110.525 68.9567 110.852 69.3613 110.852Z" fill="#222222"/>
<path d="M74.9092 110.852C75.3138 110.852 75.6416 110.525 75.6416 110.12V109.292C75.6416 108.887 75.3138 108.559 74.9092 108.559C74.5046 108.559 74.1768 108.887 74.1768 109.292V110.12C74.1768 110.525 74.5047 110.852 74.9092 110.852Z" fill="#222222"/>
<path d="M100.763 104.614H94.71C94.3054 104.614 93.9775 104.941 93.9775 105.346C93.9775 105.751 94.3054 106.078 94.71 106.078H100.763C101.167 106.078 101.495 105.751 101.495 105.346C101.495 104.941 101.167 104.614 100.763 104.614Z" fill="#222222"/>
<path d="M100.763 107.999H94.71C94.3054 107.999 93.9775 108.326 93.9775 108.731C93.9775 109.136 94.3054 109.463 94.71 109.463H100.763C101.167 109.463 101.495 109.136 101.495 108.731C101.495 108.326 101.167 107.999 100.763 107.999Z" fill="#222222"/>
<path d="M100.763 94.4581H94.71C94.3054 94.4581 93.9775 94.786 93.9775 95.1906C93.9775 95.5951 94.3054 95.923 94.71 95.923H100.763C101.167 95.923 101.495 95.5951 101.495 95.1906C101.495 94.786 101.167 94.4581 100.763 94.4581Z" fill="#222222"/>
<path d="M100.763 97.8433H94.71C94.3054 97.8433 93.9775 98.1711 93.9775 98.5757C93.9775 98.9803 94.3054 99.3081 94.71 99.3081H100.763C101.167 99.3081 101.495 98.9803 101.495 98.5757C101.495 98.1711 101.167 97.8433 100.763 97.8433Z" fill="#222222"/>
<path d="M100.763 101.228H94.71C94.3054 101.228 93.9775 101.556 93.9775 101.961C93.9775 102.365 94.3054 102.693 94.71 102.693H100.763C101.167 102.693 101.495 102.365 101.495 101.961C101.495 101.556 101.167 101.228 100.763 101.228Z" fill="#222222"/>
<path d="M100.763 87.6878H94.71C94.3054 87.6878 93.9775 88.0156 93.9775 88.4202C93.9775 88.8248 94.3054 89.1526 94.71 89.1526H100.763C101.167 89.1526 101.495 88.8248 101.495 88.4202C101.495 88.0156 101.167 87.6878 100.763 87.6878Z" fill="#222222"/>
<path d="M100.763 91.073H94.71C94.3054 91.073 93.9775 91.4008 93.9775 91.8054C93.9775 92.21 94.3054 92.5378 94.71 92.5378H100.763C101.167 92.5378 101.495 92.21 101.495 91.8054C101.495 91.4008 101.167 91.073 100.763 91.073Z" fill="#222222"/>
</g>
<defs>
<filter id="filter0_d" x="0" y="0" width="169.706" height="173.706" filterUnits="userSpaceOnUse" color-interpolation-filters="sRGB">
<feFlood flood-opacity="0" result="BackgroundImageFix"/>
<feColorMatrix in="SourceAlpha" type="matrix" values="0 0 0 0 0 0 0 0 0 0 0 0 0 0 0 0 0 0 127 0"/>
<feOffset dy="-4"/>
<feColorMatrix type="matrix" values="0 0 0 0 0.133333 0 0 0 0 0.133333 0 0 0 0 0.133333 0 0 0 1 0"/>
<feBlend mode="normal" in2="BackgroundImageFix" result="effect1_dropShadow"/>
<feBlend mode="normal" in="SourceGraphic" in2="effect1_dropShadow" result="shape"/>
</filter>
<clipPath id="clip0">
<rect x="60" y="64" width="50" height="50" fill="white"/>
</clipPath>
</defs>
</svg>
